{
  "project_info": {
    "project_number": "67180240341",
    "firebase_url": "https://fcmtokenpushnotification.firebaseio.com",
    "project_id": "fcmtokenpushnotification",
    "storage_bucket": "fcmtokenpushnotification.appspot.com"
  },
  "client": [
    {
      "client_info": {
        "mobilesdk_app_id": "1:67180240341:android:b4bf6ad75e55643d83715c",
        "android_client_info": {
          "package_name": "com.example.fcmtokenpushnotification"
        }
      },
      "oauth_client": [
        {
          "client_id": "67180240341-9uslmb1pjm8n2mlabr9qfgu3h0ak8v0v.apps.googleusercontent.com",
          "client_type": 1,
          "android_info": {
            "package_name": "com.example.fcmtokenpushnotification",
            "certificate_hash": "ceab2e3c0f0283ce4e788148a4aac10211caeaae"
          }
        },
        {
          "client_id": "67180240341-ebubf3tvg9ni46fhjms9h0p2abaju5t3.apps.googleusercontent.com",
          "client_type": 3
        }
      ],
      "api_key": [
        {
          "current_key": "AIzaSyD_rLJ-UcUYaE4N37DSHwVuQhXHnmce2SI"
        }
      ],
      "services": {
        "appinvite_service": {
          "other_platform_oauth_client": [
            {
              "client_id": "67180240341-ebubf3tvg9ni46fhjms9h0p2abaju5t3.apps.googleusercontent.com",
              "client_type": 3
            }
          ]
        }
      }
    }
  ],
  "configuration_version": "1"
}